…
> # CIs using vcovHC:
> pred_m2 <- predict(m2, newdata = grid, se.fit = TRUE)
> grid$pred <- pred_m2$fit
> grid$se <- pred_m2$se.fit
> grid <- grid %>% mutate(lwr = pred - 1.96 * se, upr = pred + 1.96 * se)
> ggplot(grid, aes(x = educ_diff, y = pred)) +
+   geom_line() +
+   geom_ribbon(aes(ymin = lwr, ymax = upr), alpha = 0.2) +
+   labs(title = "Predicted age_diff vs educ_diff (M2)", x = "educ_diff", y = "predicted age_diff")
> # Essential outputs for report
> saveRDS(list(m1 = m1, m2 = m2, m3 = m3, grid = grid), file = "lab6_results.rds")
> acs2021_couples %>% filter(abs(age_diff) > 30) %>%
+   select(AGE, h_age, age_diff, SEX, h_sex, educ_numeric, h_educ_numeric) %>%
+   arrange(desc(abs(age_diff)))
# A tibble: 3,986 × 7
     AGE h_age age_diff SEX    h_sex  educ_numeric h_educ_numeric
   <dbl> <dbl>    <dbl> <fct>  <fct>         <dbl>          <dbl>
 1     0    90      -90 Female Male              0             12
 2     2    90      -88 Male   Male              0             12
 3     5    90      -85 Female Female            2             12
 4     0    84      -84 Female Female            0             16
 5     2    85      -83 Female Male              0             11
 6     1    82      -81 Female Male              0             16
 7     0    80      -80 Female Female            0             15
 8    94    16       78 Male   Female           17             11
 9    16    93      -77 Female Male             10             15
10     6    83      -77 Male   Female            2             12
# ℹ 3,976 more rows
…
